Project Proposal for Trends in Programming Language Popularity
…
#rd <- fetch_redditData(time1,time2,subreddits=sreddits)

# instead of calling the function we load already processed data
rd <- readRDS("reddit_data16-20.Rds")%>%
  select(!c("values","language"))
rd

## # A tibble: 72,751 x 21
## # Groups:   id [59,662]
##    subreddit  title    author  selftext   id    domain url     created_utc score
##    <chr>      <chr>    <chr>   <chr>      <chr> <chr>  <chr>         <int> <int>
##  1 programmi~ "Watch ~ repterx ""         3z2k~ youtu~ https:~  1451690156     1
##  2 Python     "MIT is~ Longho~ ""         3z2n~ edx.o~ https:~  1451691312   153
##  3 javascript "What w~ jamesf~ "Soon I'l~ 3z2x~ self.~ https:~  1451696051     1
##  4 programmi~ "Python~ mercad~ ""         3z2z~ mail.~ https:~  1451696766  1587
##  5 MachineLe~ "Reques~ slaw07  "I'm look~ 3z35~ self.~ https:~  1451699762     0
##  6 datascien~ "Beginn~ greatl~ "Can anyo~ 3z35~ self.~ https:~  1451699815    22
##  7 Python     "[Game ~ Rogocr~ "I am mak~ 3z39~ self.~ https:~  1451701527     0
##  8 programmi~ "Nested~ articl~ ""         3z3t~ artic~ http:/~  1451711889     1
##  9 programmi~ "Best C~ coding~ ""         3z40~ codin~ http:/~  1451715563     1
## 10 Python     "pyzipc~ madboy~ ""         3z4s~ githu~ https:~  1451734186    23
## # ... with 72,741 more rows, and 12 more variables: num_comments <int>,
## #   wordprop_java <dbl>, wordprop_cpp <dbl>, wordprop_python <dbl>,
## #   wordprop_r <dbl>, wordcount_java <int>, wordcount_cpp <int>,
## #   wordcount_python <int>, wordcount_r <int>, languageprop <dbl>,
## #   languagecount <int>, text_new <chr>
…
        ),
        names_to = "language",
        values_to = "values")%>%
        filter(values!=0)%>%
        group_by(id)%>%
        slice_max(values)
       
}

lrd <- extract_languages(rd)
lrd

## # A tibble: 82,957 x 23
## # Groups:   id [59,662]
##    subreddit  title    author  selftext   id    domain url     created_utc score
##    <chr>      <chr>    <chr>   <chr>      <chr> <chr>  <chr>         <int> <int>
##  1 programmi~ "Watch ~ repterx ""         3z2k~ youtu~ https:~  1451690156     1
##  2 Python     "MIT is~ Longho~ ""         3z2n~ edx.o~ https:~  1451691312   153
##  3 javascript "What w~ jamesf~ "Soon I'l~ 3z2x~ self.~ https:~  1451696051     1
##  4 programmi~ "Python~ mercad~ ""         3z2z~ mail.~ https:~  1451696766  1587
##  5 MachineLe~ "Reques~ slaw07  "I'm look~ 3z35~ self.~ https:~  1451699762     0
##  6 datascien~ "Beginn~ greatl~ "Can anyo~ 3z35~ self.~ https:~  1451699815    22
##  7 Python     "[Game ~ Rogocr~ "I am mak~ 3z39~ self.~ https:~  1451701527     0
##  8 programmi~ "Nested~ articl~ ""         3z3t~ artic~ http:/~  1451711889     1
##  9 programmi~ "Best C~ coding~ ""         3z40~ codin~ http:/~  1451715563     1
## 10 Python     "pyzipc~ madboy~ ""         3z4s~ githu~ https:~  1451734186    23
## # ... with 82,947 more rows, and 14 more variables: num_comments <int>,
## #   wordprop_java <dbl>, wordprop_cpp <dbl>, wordprop_python <dbl>,
## #   wordprop_r <dbl>, wordcount_java <int>, wordcount_cpp <int>,
## #   wordcount_python <int>, wordcount_r <int>, languageprop <dbl>,
## #   languagecount <int>, text_new <chr>, language <chr>, values <dbl>
…
